…
Multiple Inputs
---------------

Simple regression.

``` r
sim_data = tibble(
  x = rnorm(30, mean = 1, sd = 1),
  y = 2 + 3 * x + rnorm(30, 0, 1)
)

sim_data
## # A tibble: 30 x 2
##         x      y
##     <dbl>  <dbl>
##  1  0.579  2.91 
##  2  2.13   7.89 
##  3  2.56   8.08 
##  4  0.770  3.69 
##  5  0.297  2.78 
##  6  1.59   5.90 
##  7 -0.118 -0.409
##  8  1.81   8.33 
##  9  0.749  3.32 
## 10  1.93   7.36 
## # ... with 20 more rows
…
``` r
url_base = "https://www.amazon.com/product-reviews/B00005JNBQ/ref=cm_cr_arp_d_viewopt_rvwer?ie=UTF8&reviewerType=avp_only_reviews&sortBy=recent&pageNumber="
urls = str_c(url_base, 1:5)

dynamite_reviews = bind_rows(
  read_page_reviews(urls[1]),
  read_page_reviews(urls[2]),
  read_page_reviews(urls[3]),
  read_page_reviews(urls[4]),
  read_page_reviews(urls[5])
)

dynamite_reviews
## # A tibble: 50 x 3
##    title                     stars text                                   
##    <chr>                     <dbl> <chr>                                  
##  1 "Great \"Odd Ball\" movi~     5 The dance scene was worth the time spe~
##  2 Nostalgic Stupidity           4 This movie is dumb. I won't lie and sa~
##  3 Happy                         5 Don't know why I lov this movie but ido
##  4 Go watch THE ROCK or dum~     2 This movie is horrible. How do so many~
##  5 My mom loves it               5 Got this for my mom for mother's day, ~
##  6 Nothing Quite Like It.        5 So much fun watching these listless pe~
##  7 Has pretty sweet bow ski~     5 Well, things are getting pretty seriou~
##  8 Great                         5 Great                                  
##  9 Fast delivery                 5 Bought as gift                         
## 10 Lol                           5 Funny                                  
## # ... with 40 more rows
```
…
